{
	"header":"Small Bites",
	"subHeading":"",
	"footer":"healthy",
	"packages":
		[
			{
				"title":"",
				"subTitle":"",
				"display":true,
				"items":
					[
						{
							"desc":"<strong>Grape and Cheese</strong>",
							"price":"4.99",
							"display":true
						},
						{
							"desc":"<strong>Celery Sticks and Peanut Butter</strong>",
							"price":"4.99",
							"display":true
						},
						{
							"desc":"<strong>Seasonal Fruit & Cheese</strong>",
							"price":"7.50",
							"display":false
						},
						{
							"desc":"<strong>Sabra Hummus & Pretzel Cup</strong>&nbsp;&nbsp;<span class='healthy-img'></span>",
							"price":"3.99",
							"display":false
						},
						{
							"desc":"<strong>Golden Jewel Salad</strong>&nbsp;&nbsp;<span class='healthy-img'></span><br />Golden jewel salad blend, sun-dried tomatoes, kalamata olives, spinach, feta cheese and balsamic vinaigrette",
							"price":"7.99",
							"display":false
						},
						{
							"desc":"<strong>Chicken Tabouleh</strong>&nbsp;&nbsp;<span class='healthy-img'></span><br />Bulgar wheat combined with grilled chicken, tomatoes,fresh parsley, mint. lemon juice and olive oil",
							"price":"7.99",
							"display":false
						},
						{
							"desc":"<strong>Bagel & Cream Cheese</strong>",
							"price":"3.50",
							"display":false
						},
						{
							"desc":"<strong>Seasonal Fruit Cup</strong>&nbsp;&nbsp;<span class='healthy-img'></span>",
							"price":"4.99",
							"display":true
						},
						{
							"desc":"<strong>Sabra Chip and Salsa Cup</strong>&nbsp;&nbsp;<span class='healthy-img'></span>",
							"price":"3.99",
							"display":true
						},
						{
							"desc":"<strong>Red Pepper & Cucumber Hummus Cup</strong>&nbsp;&nbsp;<span class='healthy-img'></span>",
							"price":"4.99",
							"display":false
						}
						,
						{
							"desc":"<strong>Gourmet Fruit and Cheese Assortment</strong><br />Imported and domestic cheese paired with fruit, crackers and dark chocolate square",
							"price":"7.99",
							"display":false
						},
						{
							"desc":"<strong>Petite Tomato Mozzarella Caprese</strong><br />Ripe tomato, creamy mozzarella cheese and fresh basil over field greens with balsamic vinaigrette",
							"price":"7.99",
							"display":false
						}
					]
			}
		]
}