{
	"header":"Hot & Savory",
	"subHeading":"",
	"footer":"healthy",
	"packages":
		[
			{
				"title":"Soups",
				"subTitle":"",
				"display":true,
				"items":
					[
						{
							"desc":"<strong>Today's Soup</strong><br />A perfect addition to any meal or hearty enough to curb your hunger",
							"price":"5.49",
							"display":true
						},
						{
							"desc":"<strong>Half Panini & Soup</strong>",
							"price":"9.99",
							"display":true
						},
						{
							"desc":"<strong>Deluxe Grilled Cheese & Soup</strong><br />American, Swiss and provolone cheeses with crisp bacon and tomatoes on griddled panini bread",
							"price":"12.99",
							"display":false
						}
					]
			},
			{
				"title":"Pizza",
				"subTitle":"&nbsp;",
				"display":false,
				"items":
					[
						{
							"desc":"Cheese",
							"price":"7.99",
							"display":true
						},
						{
							"desc":"Pepperoni",
							"price":"8.99",
							"display":true
						},
						{
							"desc":"Margherita",
							"price":"9.99",
							"display":true
						}
					]
			},
			{
				"title":"Quesadillas",
				"subTitle":"Served with sour cream, guacamole, pico de gallo and tri-colored tortilla chips",
				"display":false,
				"items":
					[
						{
							"desc":"Cheese",
							"price":"8.99",
							"display":true
						},
						{
							"desc":"Cilantro Chicken",
							"price":"9.99",
							"display":true
						},
						{
							"desc":"Pork Carnitas Quesadilla <br /><i>served with black bean and corn salsa</i>",
							"price":"10.99",
							"display":true
						}
					]
			},
			{
				"title":"Sliders",
				"subTitle":"",
				"display":false,
				"items":
					[
						{
							"desc":"Four beef sliders topped with Swiss and cheddar cheeses and garnished with ripe tomatoes and pickle chips offered with chipotle ketchup and chipsadd bacon for an additional     1.99",
							"price":"12.99", "display":true

						}
					]
			},
			{
				"title":"",
				"subTitle":"<div class='center small'>Nutritional information for the sandwiches available at www.aa.com/admiralsclub</div>",
				"display":true
			}
		]
}