{
	"header":"Snack Bites",
	"subHeading":"",
	"footer":"healthy",
	"packages":
		[
			{
				"title":"",
				"subTitle":"","display":true,
				"items":
					[
						{
							"desc":"<strong>Gourmet Chocolate Luggage Tags by Edward Marc</strong>",
							"price":"3.99",
							"display":false
						},
						{
							"desc":"<strong>Sweet and Savory Snacks</strong>",
							"price":"3.99",
							"display":true
						},
						{
							"desc":"<strong>Sahale Nut Blends</strong>&nbsp;&nbsp;<span class='healthy-img'></span><br />Almonds with Cranberries and Honey<br />Cashews with Pomegranate and Vanilla<br />Classic Fruit and Nut Blend<br />California Almonds with Sea Salt",
							"price":"2.29",
							"display":false
						}
					]
			}
		]
}