{
	"items":
		[
			{"title":"Breakfast","img":"img/breakfast_02.png","file":"breakfast"},
			{"title":"Salads","img":"img/salads.png","file":"salads"},
			{"title":"Specialty Sandwiches","img":"img/pannini_01.png","file":"sandwiches"},
			{"title":"Hot & Savory","img":"img/soup_01.png","file":"savory"},
			{"title":"Snack Bites","img":"","file":"snacks"},
			{"title":"Sips & Chips","img":"","file":"chips"},
			{"title":"Drink Menu","img":"img/drinks.png","file":"drinks"},
			{"title":"","img":"","file":""},
			{"title":"","img":"","file":""},
			{"title":"","img":"","file":""},
			{"title":"","img":"","file":""},
			{"title":"","img":"","file":""}
		]
}