{
	"header":"Snack Bites",
	"subHeading":"",
	"footer":"healthy",
	"packages":
		[
			{
				"title":"",
				"subTitle":"", "display":true,
				"items":
					[

						{
							"desc":"<strong>Sweet and Savory Snacks</strong>",
							"price":"3.99", "display":true
						}
					]
			}
		]
}