{
	"header":"Sips & Chips",
	"subHeading":"",
	"footer":"healthy",
	"packages":
		[
			{
				"title":"",
				"subTitle":"", "display":true,
				"items":
					[
						{
							"desc":"<strong>Energy Drinks</strong>",
							"price":"3.99", "display":false
						},
						{
							"desc":"<strong>Naked Juice 100% Juice Smoothies</strong>&nbsp;&nbsp;<span class='healthy-img'></span>",
							"price":"3.99", "display":false
						},
						{
							"desc":"<strong>Mineral Water</strong>",
							"price":"3.50", "display":true
						},
						{
							"desc":"<strong>Bottled Water</strong>",
							"price":"2.29", "display":true
						},
						{
							"desc":"<strong>Bottled Sodas</strong>",
							"price":"2.29", "display":false
						},
						{
							"desc":"<strong>Chips</strong>",
							"price":"2.29", "display":true
						},
						{
							"desc":"<strong>Glenny's Gluten-Free Soy Crisps</strong>&nbsp;&nbsp;<span class='healthy-img'></span>",
							"price":"2.29", "display":false
						}
					]
			}
		]
}