{
	"header":"Panini",
	"subHeading":"",
	"footer":"healthy",
	"packages":
		[
			{
				"title":"",
				"subTitle":"","display":true,
				"items":
					[
						{
							"desc":"<strong>Turkey Florentine</strong><br />Roast turkey breast, melted Swiss cheese, fresh spinach and honey mustard on griddled panini bread",
							"price":"9.99",
							"display":true
						}
					]
			},
			{
				"title":"",
				"subTitle":"","display":true,
				"items":
					[
						{
							"desc":"<strong>Muffaletta</strong><br />Shaved ham, Genoa salami, provolone cheese, green olive tapenade and tomato on griddled panini bread",
							"price":"9.99",
							"display":true
						}
					]
			},
			{
				"title":"",
				"subTitle":"","display":true,
				"items":
					[
						{
							"desc":"<strong>BBQ Brisket</strong><br />BBQ beef brisket, cheddar cheese, roasted red peppers and caramelized onions on griddled panini bread",
							"price":"9.99",
							"display":true
						}
					]
			},
			{
				"title":"",
				"subTitle":"","display":true,
				"items":
					[
						{
							"desc":"<strong>Deluxe Grilled Cheese</strong><br />American, Swiss and provolone cheeses with crisp bacon and tomatoes on grilled panini bread",
							"price":"7.99",
							"display":true
						}
					]
			}
			,
			{
				"title":"",
				"subTitle":"","display":true,
				"items":
					[
						{
							"desc":"Half Panini & Soup",
							"price":"9.99",
							"display":true
						}
					]
			},
			{
				"title":"",
				"subTitle":"","display":true,
				"items":
					[
						{
							"desc":"Deluxe Grilled Cheese & Soup",
							"price":"12.99",
							"display":true
						}
					]
			}
		]
}