{
	"header":"Breakfast",
	"subHeading":"",
	"footer":"healthy",
	"packages":
		[
			{
				"title":"",
				"subTitle":"", "display":true,
				"items":
					[
						{
							"desc":"<strong>Mediterranean Egg White Breakfast Panini</strong><br />Egg whites, provolone cheese, roasted peppers, spinach and pesto on whole grain gluten free bread",
							"price":"5.99",
							"display":true
						},
						{
							"desc":"<strong>Fruit and Yogurt Parfait</strong>&nbsp;&nbsp;<span class='healthy-img'></span>",
							"price":"4.99",
							"display":true
						},
						{
							"desc":"<strong>Hot Breakfast Sandwich</strong>",
							"price":"4.25",
							"display":false
						},

						{
							"desc":"<strong>Steel Cut Oatmeal</strong>&nbsp;&nbsp;<span class='healthy-img'></span><br/>Served with brown sugar, dried fruit and nut medley",
							"price":"4.99",
							"display":true
						},

						{
							"desc":"<strong>Vanilla Belgian Waffle</strong><br />Served with warm maple syrup Add whipped cream, strawberry topping and chopped pecans for an additional 1.50",
							"price":"3.99", "display":true
						},

						{
							"desc":"<strong>Cold Cereal with Milk</strong>&nbsp;&nbsp;<span class='healthy-img'></span><br />Ask about our wholesome selections",
							"price":"3.79", "display":true
						},
						{
							"desc":"<strong>Cereal with Milk</strong>&nbsp;&nbsp;<span class='healthy-img'></span><br>Ask about our wholesome selections",
							"price":"3.79",
							"display":false
						},
						{
							"desc":"<strong>Brainy Oats All Natural Oatmeal</strong>&nbsp;&nbsp;<span class='healthy-img'></span>",
							"price":"3.79",
							"display":false
						},
						{
							"desc":"<strong>Bagel and Cream Cheese</strong>",
							"price":"3.50",
							"display":false
						},
						{
							"desc":"<strong>100% Juice Smoothies</strong>&nbsp;&nbsp;<span class='healthy-img'></span>",
							"price":"3.99",
							"display":false
						},
						{
							"desc":"<strong>JimmyBar! Whole Foods Energy Bars</strong>&nbsp;&nbsp;<span class='healthy-img'></span>",
							"price":"2.99",
							"display":true
						}

					]
			}
		]
}